<?xml version="1.0" encoding="utf-8"?>
<!-- Generator: Adobe Illustrator 18.1.1, SVG Export Plug-In . SVG Version: 6.00 Build 0)  -->
<!DOCTYPE svg PUBLIC "-//W3C//DTD SVG 1.1//EN" "http://www.w3.org/Graphics/SVG/1.1/DTD/svg11.dtd">
<svg version="1.1" id="Your_Icon" xmlns="http://www.w3.org/2000/svg" xmlns:xlink="http://www.w3.org/1999/xlink" x="0px" y="0px"
	 width="21px" height="21px" viewBox="-215.5 386.5 21 21" enable-background="new -215.5 386.5 21 21" xml:space="preserve">
<rect x="-215.6" y="386.5" fill="none" width="21" height="21"/>
<g id="Isolation_Mode">
	<path fill="#FFFFFF" d="M-203.2,397.5c-0.1-0.2-0.3-0.2-0.5-0.2l-0.8,0.3c-0.2,0.1-0.4,0-0.6-0.1l-0.6-0.6
		c-0.1-0.1-0.2-0.4-0.2-0.6l0.3-0.8c0.1-0.2,0-0.4-0.2-0.5l-1.6-0.6c-0.2-0.1-0.4,0-0.5,0.2l-0.3,0.8c-0.1,0.2-0.3,0.3-0.5,0.3
		l-0.8,0c-0.2,0-0.4-0.1-0.5-0.3l-0.4-0.8c-0.1-0.2-0.3-0.3-0.5-0.2c0,0-0.4,0.1-0.8,0.3c-0.4,0.2-0.8,0.4-0.8,0.4
		c-0.2,0.1-0.2,0.3-0.2,0.5l0.3,0.8c0.1,0.2,0,0.4-0.1,0.6l-0.6,0.6c-0.1,0.1-0.4,0.2-0.5,0.2l-0.8-0.3c-0.2-0.1-0.4,0-0.5,0.2
		l-0.6,1.6c-0.1,0.2,0,0.4,0.2,0.5l0.8,0.3c0.2,0.1,0.3,0.3,0.3,0.5l0,0.8c0,0.2-0.1,0.4-0.3,0.5l-0.8,0.4c-0.2,0.1-0.3,0.3-0.2,0.5
		c0,0,0.1,0.4,0.3,0.8c0.2,0.4,0.4,0.8,0.4,0.8c0.1,0.2,0.3,0.2,0.5,0.2l0.8-0.3c0.2-0.1,0.4,0,0.6,0.1l0.6,0.6
		c0.1,0.1,0.2,0.4,0.2,0.5l-0.3,0.8c-0.1,0.2,0,0.4,0.2,0.5l1.6,0.6c0.2,0.1,0.4,0,0.5-0.2l0.3-0.8c0.1-0.2,0.3-0.3,0.5-0.3l0.8,0
		c0.2,0,0.4,0.1,0.5,0.3l0.4,0.8c0.1,0.2,0.3,0.3,0.5,0.2c0,0,0.4-0.1,0.8-0.3c0.4-0.2,0.8-0.4,0.8-0.4c0.2-0.1,0.2-0.3,0.2-0.5
		l-0.3-0.8c-0.1-0.2,0-0.4,0.1-0.6l0.6-0.6c0.1-0.1,0.4-0.2,0.5-0.2l0.8,0.3c0.2,0.1,0.4,0,0.5-0.2l0.6-1.6c0.1-0.2,0-0.4-0.2-0.5
		l-0.8-0.3c-0.2-0.1-0.3-0.3-0.3-0.5l0-0.8c0-0.2,0.1-0.4,0.3-0.5l0.8-0.4c0.2-0.1,0.3-0.3,0.2-0.5c0,0-0.1-0.4-0.3-0.8
		C-203,397.9-203.2,397.5-203.2,397.5z M-208.2,402.5c-0.9,0.4-1.9,0-2.3-0.9c-0.4-0.9,0-1.9,0.9-2.3c0.9-0.4,1.9,0,2.3,0.9
		C-207,401.1-207.3,402.2-208.2,402.5z"/>
	<path fill="#FFFFFF" d="M-194.8,391.6c0-0.2-0.2-0.3-0.3-0.3l-0.7,0c-0.2,0-0.3-0.1-0.4-0.3l-0.3-0.7c-0.1-0.1,0-0.4,0.1-0.5
		l0.5-0.5c0.1-0.1,0.1-0.3,0-0.5l-1.1-1c-0.1-0.1-0.3-0.1-0.5,0l-0.5,0.5c-0.1,0.1-0.3,0.1-0.5,0.1l-0.7-0.3
		c-0.2-0.1-0.3-0.2-0.3-0.4l0-0.7c0-0.2-0.2-0.3-0.3-0.3c0,0-0.4-0.1-0.7,0c-0.4,0-0.7,0.1-0.7,0.1c-0.2,0-0.3,0.2-0.3,0.3l0,0.7
		c0,0.2-0.1,0.3-0.3,0.4l-0.7,0.3c-0.1,0.1-0.4,0-0.5-0.1l-0.5-0.5c-0.1-0.1-0.3-0.1-0.5,0l-1,1.1c-0.1,0.1-0.1,0.3,0,0.5l0.5,0.5
		c0.1,0.1,0.1,0.3,0.1,0.5l-0.3,0.7c-0.1,0.2-0.2,0.3-0.4,0.3l-0.7,0c-0.2,0-0.3,0.2-0.3,0.3c0,0-0.1,0.4,0,0.7
		c0,0.4,0.1,0.7,0.1,0.7c0,0.2,0.2,0.3,0.3,0.3l0.7,0c0.2,0,0.3,0.1,0.4,0.3l0.3,0.7c0.1,0.1,0,0.4-0.1,0.5l-0.5,0.5
		c-0.1,0.1-0.1,0.3,0,0.5l1.1,1c0.1,0.1,0.3,0.1,0.5,0l0.5-0.5c0.1-0.1,0.3-0.1,0.5-0.1l0.7,0.3c0.2,0.1,0.3,0.2,0.3,0.4l0,0.7
		c0,0.2,0.2,0.3,0.3,0.3c0,0,0.4,0,0.7,0c0.4,0,0.7-0.1,0.7-0.1c0.2,0,0.3-0.2,0.3-0.3l0-0.7c0-0.2,0.1-0.3,0.3-0.4l0.7-0.3
		c0.1-0.1,0.4,0,0.5,0.1l0.5,0.5c0.1,0.1,0.3,0.1,0.5,0l1-1.1c0.1-0.1,0.1-0.3,0-0.5l-0.5-0.5c-0.1-0.1-0.1-0.3-0.1-0.5l0.3-0.7
		c0.1-0.2,0.2-0.3,0.4-0.3l0.7,0c0.2,0,0.3-0.2,0.3-0.3c0,0,0-0.4,0-0.7C-194.7,391.9-194.8,391.6-194.8,391.6z M-200.6,394
		c-0.9,0-1.7-0.7-1.7-1.7c0-0.9,0.7-1.7,1.7-1.7c0.9,0,1.7,0.7,1.7,1.7C-198.9,393.3-199.6,394-200.6,394z"/>
</g>
</svg>
