<?xml version="1.0" encoding="utf-8"?>
<!-- Generator: Adobe Illustrator 18.1.1, SVG Export Plug-In . SVG Version: 6.00 Build 0)  -->
<!DOCTYPE svg PUBLIC "-//W3C//DTD SVG 1.1//EN" "http://www.w3.org/Graphics/SVG/1.1/DTD/svg11.dtd">
<svg version="1.1" id="Layer_1" xmlns="http://www.w3.org/2000/svg" xmlns:xlink="http://www.w3.org/1999/xlink" x="0px" y="0px"
	 width="21px" height="21px" viewBox="-215.5 386.5 21 21" enable-background="new -215.5 386.5 21 21" xml:space="preserve">
<path fill="#006CA3" d="M-214.1,398.4h14.8l-4,4c-0.5,0.5-0.5,1.4,0,2c0.5,0.5,1.4,0.5,2,0l6.3-6.3l0,0c0.1-0.1,0.1-0.1,0.2-0.2
	c0,0,0-0.1,0.1-0.1c0,0,0.1-0.1,0.1-0.1c0,0,0-0.1,0-0.1c0,0,0-0.1,0-0.1c0-0.1,0-0.1,0-0.2c0,0,0,0,0-0.1c0,0,0,0,0-0.1
	c0-0.1,0-0.1,0-0.2c0,0,0-0.1,0-0.1c0,0,0-0.1,0-0.1c0-0.1-0.1-0.1-0.1-0.2c0,0,0-0.1,0-0.1c-0.1-0.1-0.1-0.2-0.2-0.2l-6.3-6.3
	c-0.3-0.3-0.6-0.4-1-0.4c-0.4,0-0.7,0.1-1,0.4c-0.5,0.5-0.5,1.4,0,2l4,4h-14.8c-0.8,0-1.4,0.6-1.4,1.4S-214.8,398.4-214.1,398.4z"/>
<rect x="-215.5" y="386.5" fill="none" width="21" height="21"/>
</svg>
